<?xml version="1.0" encoding="UTF-8" standalone="no"?>
<svg
   width="525pt"
   height="525pt"
   version="1.1"
   viewBox="0 0 525 525"
   id="svg5086"
   sodipodi:docname="code.svg"
   inkscape:version="1.1.1 (3bf5ae0d25, 2021-09-20, custom)"
   xmlns:inkscape="http://www.inkscape.org/namespaces/inkscape"
   xmlns:sodipodi="http://sodipodi.sourceforge.net/DTD/sodipodi-0.dtd"
   xmlns="http://www.w3.org/2000/svg"
   xmlns:svg="http://www.w3.org/2000/svg">
  <sodipodi:namedview
     id="namedview5088"
     pagecolor="#ffffff"
     bordercolor="#999999"
     borderopacity="1"
     inkscape:pageshadow="0"
     inkscape:pageopacity="0"
     inkscape:pagecheckerboard="0"
     inkscape:document-units="pt"
     showgrid="false"
     fit-margin-top="0"
     fit-margin-left="0"
     fit-margin-right="0"
     fit-margin-bottom="0"
     inkscape:zoom="0.46288279"
     inkscape:cx="-158.7875"
     inkscape:cy="512.00867"
     inkscape:window-width="1920"
     inkscape:window-height="1080"
     inkscape:window-x="1440"
     inkscape:window-y="0"
     inkscape:window-maximized="0"
     inkscape:current-layer="svg5086" />
  <defs
     id="defs4998">
    <symbol
       id="w"
       overflow="visible">
      <path
         d="M 6.25,-0.375 C 5.92578,-0.20703 5.58594,-0.08203 5.2344,0 4.89065,0.082031 4.53128,0.125 4.1563,0.125 3.0196,0.125 2.1172,-0.1875 1.4532,-0.8125 0.79695,-1.44531 0.46882,-2.3047 0.46882,-3.3906 c 0,-1.0938 0.32812,-1.9531 0.98438,-2.5781 0.66406,-0.63281 1.5664,-0.95312 2.7031,-0.95312 0.375,0 0.73438,0.042969 1.0781,0.125 0.35156,0.085937 0.69141,0.21094 1.0156,0.375 v 1.4062 C 5.92578,-5.23437 5.60156,-5.39453 5.28125,-5.5 4.96875,-5.60156 4.64063,-5.65625 4.29687,-5.65625 c -0.625,0 -1.1211,0.20312 -1.4844,0.60938 -0.35547,0.39844 -0.53125,0.94922 -0.53125,1.6562 0,0.69922 0.17578,1.25 0.53125,1.6562 0.36328,0.39844 0.85938,0.59375 1.4844,0.59375 0.34375,0 0.67188,-0.050781 0.98438,-0.15625 C 5.60156,-1.39853 5.92578,-1.56259 6.25,-1.78135 Z"
         id="path4929" />
    </symbol>
    <symbol
       id="c"
       overflow="visible">
      <path
         d="M 4.5781,-3.7188 C 4.42966,-3.7813 4.28513,-3.82818 4.1406,-3.85942 4.00388,-3.89067 3.86326,-3.906295 3.71872,-3.906295 c -0.41797,0 -0.74219,0.13672 -0.96875,0.40625 -0.23047,0.26172 -0.34375,0.64844 -0.34375,1.1562 v 2.3438 h -1.625 v -5.0938 h 1.625 v 0.82812 c 0.21875,-0.33203 0.46094,-0.57031 0.73438,-0.71875 0.26953,-0.15625 0.59375,-0.23438 0.96875,-0.23438 0.050781,0 0.10938,0.00781 0.17188,0.015625 0.070312,0 0.16406,0.00781 0.28125,0.015625 z"
         id="path4932" />
    </symbol>
    <symbol
       id="b"
       overflow="visible">
      <path
         d="m 5.875,-2.5625 v 0.46875 H 2.0625 c 0.039062,0.375 0.17578,0.66406 0.40625,0.85938 0.23828,0.1875 0.57031,0.28125 1,0.28125 0.34375,0 0.69141,-0.046875 1.0469,-0.14062 0.36328,-0.10156 0.73828,-0.25781 1.125,-0.46875 v 1.25 c -0.38672,0.14844 -0.77344,0.25781 -1.1562,0.32812 -0.38672,0.070312 -0.77344,0.10938 -1.1562,0.10938 -0.92969,0 -1.6484,-0.23438 -2.1562,-0.70312 -0.51172,-0.46875 -0.76562,-1.125 -0.76562,-1.9688 0,-0.83203 0.25,-1.4844 0.75,-1.9531 0.5,-0.47656 1.1914,-0.71875 2.0781,-0.71875 0.80078,0 1.4414,0.24219 1.9219,0.71875 0.47656,0.48047 0.71875,1.125 0.71875,1.9375 z M 4.2031,-3.10938 c 0,-0.3125 -0.09375,-0.5625 -0.28125,-0.75 -0.17969,-0.1875 -0.41406,-0.28125 -0.70312,-0.28125 -0.3125,0 -0.57031,0.089844 -0.76562,0.26562 -0.19922,0.17969 -0.32422,0.43359 -0.375,0.76562 z"
         id="path4935" />
    </symbol>
    <symbol
       id="f"
       overflow="visible">
      <path
         d="m 3.0625,-2.2969 c -0.33594,0 -0.58984,0.058594 -0.76562,0.17188 -0.16797,0.11719 -0.25,0.28906 -0.25,0.51562 0,0.21094 0.066406,0.37109 0.20312,0.48438 0.13281,0.11719 0.32812,0.17188 0.57812,0.17188 0.30078,0 0.55469,-0.10938 0.76562,-0.32812 0.21875,-0.21875 0.32812,-0.49219 0.32812,-0.82812 v -0.1875 z m 2.5,-0.60938 V -8e-5 H 3.9219 v -0.75 C 3.70315,-0.44539 3.45315,-0.22274 3.1719,-0.0782 2.89846,0.05461 2.57034,0.12492 2.18752,0.12492 1.65627,0.12492 1.22268,-0.02352 0.89062,-0.3282 0.5664,-0.6407 0.40624,-1.03914 0.40624,-1.5313 c 0,-0.59375 0.20312,-1.0312 0.60938,-1.3125 0.41406,-0.28125 1.0625,-0.42188 1.9375,-0.42188 h 0.96875 v -0.125 c 0,-0.25781 -0.10547,-0.44531 -0.3125,-0.5625 -0.19922,-0.125 -0.51562,-0.1875 -0.95312,-0.1875 -0.34375,0 -0.66797,0.039063 -0.96875,0.10938 -0.30469,0.0625 -0.58594,0.16797 -0.84375,0.3125 v -1.25 c 0.35156,-0.082031 0.70312,-0.14453 1.0469,-0.1875 0.35156,-0.039062 0.70703,-0.0625 1.0625,-0.0625 0.92578,0 1.5938,0.18359 2,0.54688 0.40625,0.35547 0.60938,0.94531 0.60938,1.7656 z"
         id="path4938" />
    </symbol>
    <symbol
       id="d"
       overflow="visible">
      <path
         d="m 2.5625,-6.5469 v 1.4531 H 4.25 v 1.1562 H 2.5625 v 2.1719 c 0,0.23047 0.046875,0.38672 0.14062,0.46875 0.09375,0.085937 0.28125,0.125 0.5625,0.125 H 4.10937 V -5e-5 h -1.4062 c -0.64844,0 -1.1055,-0.13281 -1.375,-0.40625 C 1.06645,-0.67583 0.93755,-1.12896 0.93755,-1.7657 v -2.1719 h -0.8125 v -1.1562 h 0.8125 v -1.4531 z"
         id="path4941" />
    </symbol>
    <symbol
       id="j"
       overflow="visible">
      <path
         d="M 4.25,-4.3594 V -7.0938 H 5.8906 V 0 H 4.25 v -0.73438 c -0.21875,0.30469 -0.46484,0.52344 -0.73438,0.65625 -0.27344,0.13281 -0.58594,0.20312 -0.9375,0.20312 -0.63672,0 -1.1562,-0.24219 -1.5625,-0.73438 -0.39844,-0.5 -0.59375,-1.1445 -0.59375,-1.9375 0,-0.78125 0.19531,-1.4219 0.59375,-1.9219 0.40625,-0.5 0.92578,-0.75 1.5625,-0.75 0.35156,0 0.66406,0.074219 0.9375,0.21875 0.26953,0.13672 0.51562,0.35156 0.73438,0.64062 z m -1.0781,3.3125 c 0.35156,0 0.61719,-0.125 0.79688,-0.375 0.1875,-0.25781 0.28125,-0.63281 0.28125,-1.125 0,-0.48828 -0.09375,-0.85938 -0.28125,-1.1094 -0.17969,-0.25781 -0.44531,-0.39062 -0.79688,-0.39062 -0.34375,0 -0.60938,0.13281 -0.79688,0.39062 -0.17969,0.25 -0.26562,0.62109 -0.26562,1.1094 0,0.49219 0.085937,0.86719 0.26562,1.125 0.1875,0.25 0.45312,0.375 0.79688,0.375 z"
         id="path4944" />
    </symbol>
    <symbol
       id="i"
       overflow="visible">
      <path
         d="m 3.5,-1.0469 c 0.34375,0 0.60938,-0.125 0.79688,-0.375 0.1875,-0.25781 0.28125,-0.63281 0.28125,-1.125 0,-0.48828 -0.09375,-0.85938 -0.28125,-1.1094 C 4.10938,-3.91411 3.84376,-4.04692 3.5,-4.04692 c -0.35547,0 -0.625,0.13281 -0.8125,0.39062 -0.1875,0.26172 -0.28125,0.63281 -0.28125,1.1094 0,0.48047 0.09375,0.85156 0.28125,1.1094 0.1875,0.26172 0.45703,0.39062 0.8125,0.39062 z M 2.4062,-4.3594 c 0.22656,-0.28906 0.47656,-0.50391 0.75,-0.64062 0.28125,-0.14453 0.59766,-0.21875 0.95312,-0.21875 0.625,0 1.1406,0.25 1.5469,0.75 0.4063,0.5 0.60938,1.1406 0.60938,1.9219 0,0.79297 -0.20312,1.4375 -0.60938,1.9375 -0.40625,0.49219 -0.92188,0.73438 -1.5469,0.73438 -0.35547,0 -0.67188,-0.070312 -0.95312,-0.20312 -0.27344,-0.14453 -0.52344,-0.36328 -0.75,-0.65625 V 2e-5 h -1.625 v -7.0938 h 1.625 z"
         id="path4947" />
    </symbol>
    <symbol
       id="h"
       overflow="visible">
      <path
         d="m 0.10938,-5.0938 h 1.6406 l 1.3594,3.4531 1.1719,-3.4531 h 1.625 L 3.76568,0.4843 C 3.54693,1.0468 3.28912,1.44133 3.00006,1.6718 2.71881,1.89836 2.34381,2.01555 1.87506,2.01555 h -0.9375 v -1.0781 h 0.5 c 0.28125,0 0.48438,-0.046875 0.60938,-0.14062 C 2.17194,0.710893 2.2696,0.56245 2.34382,0.34371 L 2.390695,0.20309 Z"
         id="path4950" />
    </symbol>
    <symbol
       id="g"
       overflow="visible">
      <path
         d="m 4.9844,-1.2344 h -2.75 L 1.81252,0 h -1.7656 l 2.5156,-6.7969 h 2.0938 L 7.17192,0 H 5.40632 Z M 2.6719,-2.5 h 1.875 L 3.6094,-5.2031 Z"
         id="path4953" />
    </symbol>
    <symbol
       id="e"
       overflow="visible">
      <path
         d="M 5.9062,-3.1094 V 0 H 4.2656 v -2.375 c 0,-0.4375 -0.011719,-0.73828 -0.03125,-0.90625 C 4.222631,-3.44531 4.191381,-3.57031 4.1406,-3.65625 4.0781,-3.75781 3.98826,-3.84375 3.87498,-3.90625 3.76951,-3.96875 3.64451,-4 3.49998,-4 3.16404,-4 2.89842,-3.86328 2.7031,-3.59375 2.50388,-3.33203 2.40622,-2.97266 2.40622,-2.51565 V -5e-5 h -1.625 v -5.0938 h 1.625 v 0.73438 c 0.25,-0.28906 0.50781,-0.50391 0.78125,-0.64062 0.28125,-0.14453 0.58594,-0.21875 0.92188,-0.21875 0.59375,0 1.0391,0.18359 1.3438,0.54688 0.30078,0.35547 0.45312,0.875 0.45312,1.5625 z"
         id="path4956" />
    </symbol>
    <symbol
       id="v"
       overflow="visible">
      <path
         d="M 4.25,-0.85938 C 4.03125,-0.56641 3.78516,-0.34766 3.51562,-0.20313 3.24218,-0.06641 2.92968,-1e-5 2.57812,-1e-5 c -0.625,0 -1.1406,-0.24219 -1.5469,-0.73438 -0.40625,-0.48828 -0.60938,-1.1133 -0.60938,-1.875 0,-0.75781 0.20312,-1.3828 0.60938,-1.875 0.40625,-0.48828 0.92188,-0.73438 1.5469,-0.73438 0.35156,0 0.66406,0.074219 0.9375,0.21875 0.26953,0.13672 0.51562,0.35547 0.73438,0.65625 v -0.75 h 1.6406 v 4.5781 c 0,0.82031 -0.26172,1.4453 -0.78125,1.875 -0.51172,0.4375 -1.2617,0.65625 -2.25,0.65625 -0.3125,0 -0.62109,-0.027344 -0.92188,-0.078125 C 1.6445,1.894486 1.34763,1.820265 1.04685,1.718705 v -1.2656 c 0.28125,0.15625 0.55469,0.27344 0.82812,0.35938 0.28125,0.082031 0.55469,0.125 0.82812,0.125 0.53125,0 0.92188,-0.12109 1.1719,-0.35938 0.25,-0.23047 0.375,-0.59375 0.375,-1.0938 z m -1.0781,-3.1875 c -0.33594,0 -0.59375,0.125 -0.78125,0.375 -0.1875,0.25 -0.28125,0.60547 -0.28125,1.0625 0,0.46875 0.085937,0.82422 0.26562,1.0625 0.1875,0.24219 0.45312,0.35938 0.79688,0.35938 0.34376,0 0.60938,-0.125 0.79688,-0.375 0.1875,-0.25 0.28125,-0.59766 0.28125,-1.0469 0,-0.45703 -0.09375,-0.8125 -0.28125,-1.0625 -0.1875,-0.25 -0.45312,-0.375 -0.79688,-0.375 z"
         id="path4959" />
    </symbol>
    <symbol
       id="u"
       overflow="visible">
      <path
         d="m 0.78125,-7.0938 h 1.625 V 0 h -1.625 z"
         id="path4962" />
    </symbol>
    <symbol
       id="a"
       overflow="visible">
      <path
         d="m 3.2188,-4.0625 c -0.36719,0 -0.64844,0.13281 -0.84375,0.39062 -0.1875,0.26172 -0.28125,0.63672 -0.28125,1.125 0,0.49219 0.09375,0.86719 0.28125,1.125 0.19531,0.26172 0.47656,0.39062 0.84375,0.39062 0.35156,0 0.625,-0.12891 0.8125,-0.39062 0.1875,-0.25781 0.28125,-0.63281 0.28125,-1.125 0,-0.48828 -0.09375,-0.86328 -0.28125,-1.125 C 3.8438,-3.92969 3.57036,-4.0625 3.2188,-4.0625 Z m 0,-1.1562 c 0.875,0 1.5547,0.24219 2.0469,0.71875 0.48828,0.46875 0.73438,1.1211 0.73438,1.9531 0,0.84375 -0.24609,1.5 -0.73438,1.9688 -0.49219,0.46875 -1.1719,0.70312 -2.0469,0.70312 -0.88672,0 -1.5781,-0.23438 -2.0781,-0.70312 -0.49219,-0.46875 -0.73438,-1.125 -0.73438,-1.9688 0,-0.83203 0.24219,-1.4844 0.73438,-1.9531 0.5,-0.47656 1.1914,-0.71875 2.0781,-0.71875 z"
         id="path4965" />
    </symbol>
    <symbol
       id="t"
       overflow="visible">
      <path
         d="m 0.046875,-6.7969 h 6.2656 v 1.3281 h -2.25 V 0 h -1.75 v -5.4688 h -2.2656 z"
         id="path4968" />
    </symbol>
    <symbol
       id="s"
       overflow="visible">
      <path
         d="m 0.78125,-5.0938 h 1.625 V 0 h -1.625 z m 0,-2 h 1.625 V -5.75 h -1.625 z"
         id="path4971" />
    </symbol>
    <symbol
       id="r"
       overflow="visible">
      <path
         d="m 4.1406,-7.0938 v 1.0781 H 3.23435 c -0.23047,0 -0.39062,0.042969 -0.48438,0.125 -0.085938,0.085937 -0.125,0.23047 -0.125,0.4375 v 0.35938 h 1.3906 v 1.1562 h -1.3906 v 3.9375 h -1.6406 v -3.9375 h -0.8125 v -1.1562 h 0.8125 V -5.4532 c 0,-0.5625 0.15625,-0.97266 0.46875,-1.2344 0.3125,-0.26953 0.78906,-0.40625 1.4375,-0.40625 z"
         id="path4974" />
    </symbol>
    <symbol
       id="q"
       overflow="visible">
      <path
         d="m 5.5156,-4.25 c 0.20703,-0.32031 0.45312,-0.5625 0.73438,-0.71875 0.28125,-0.16406 0.59375,-0.25 0.9375,-0.25 0.58203,0 1.0234,0.18359 1.3281,0.54688 0.3125,0.35547 0.46875,0.875 0.46875,1.5625 V 3e-5 h -1.6406 v -2.6562 -0.125 -0.1875 c 0,-0.35156 -0.054688,-0.61328 -0.15625,-0.78125 -0.10547,-0.16406 -0.27734,-0.25 -0.51562,-0.25 -0.30469,0 -0.54297,0.13281 -0.71875,0.39062 -0.16797,0.25 -0.25,0.62109 -0.25,1.1094 v 2.5 h -1.6406 v -2.6562 c 0,-0.5625 -0.054688,-0.92578 -0.15625,-1.0938 -0.09375,-0.16406 -0.26562,-0.25 -0.51562,-0.25 -0.3125,0 -0.55859,0.13281 -0.73438,0.39062 -0.16797,0.26172 -0.25,0.625 -0.25,1.0938 v 2.5156 h -1.625 v -5.0938 h 1.625 v 0.73438 c 0.20703,-0.28125 0.44141,-0.49219 0.70312,-0.64062 0.25781,-0.14453 0.54688,-0.21875 0.85938,-0.21875 0.34375,0 0.64844,0.085938 0.92188,0.25 0.26953,0.16797 0.47656,0.40625 0.625,0.71875 z"
         id="path4977" />
    </symbol>
    <symbol
       id="p"
       overflow="visible">
      <path
         d="M 5.9062,-3.1094 V 0 H 4.2656 v -2.375 c 0,-0.4375 -0.011719,-0.73828 -0.03125,-0.90625 C 4.222631,-3.44531 4.191381,-3.57031 4.1406,-3.65625 4.0781,-3.75781 3.98826,-3.84375 3.87498,-3.90625 3.76951,-3.96875 3.64451,-4 3.49998,-4 3.16404,-4 2.89842,-3.86328 2.7031,-3.59375 2.50388,-3.33203 2.40622,-2.97266 2.40622,-2.51565 V -5e-5 h -1.625 v -7.0938 h 1.625 v 2.7344 c 0.25,-0.28906 0.50781,-0.50391 0.78125,-0.64062 0.28125,-0.14453 0.58594,-0.21875 0.92188,-0.21875 0.59375,0 1.0391,0.18359 1.3438,0.54688 0.30078,0.35547 0.45312,0.875 0.45312,1.5625 z"
         id="path4980" />
    </symbol>
    <symbol
       id="o"
       overflow="visible">
      <path
         d="m 0.85938,-6.7969 h 1.9531 l 2.4688,4.6562 v -4.6562 h 1.6719 V 0 H 4.98438 L 2.51558,-4.6719 V 0 h -1.6562 z"
         id="path4983" />
    </symbol>
    <symbol
       id="n"
       overflow="visible">
      <path
         d="m 0.73438,-1.9844 v -3.1094 h 1.6406 v 0.5 c 0,0.28125 -0.00781,0.63281 -0.015625,1.0469 v 0.82812 c 0,0.41797 0.00781,0.71484 0.03125,0.89062 0.019531,0.17969 0.054687,0.30859 0.10938,0.39062 0.0625,0.10547 0.14453,0.1875 0.25,0.25 0.11328,0.054688 0.24219,0.078125 0.39062,0.078125 0.33203,0 0.59766,-0.12891 0.79688,-0.39062 0.19531,-0.25781 0.29688,-0.61719 0.29688,-1.0781 v -2.5156 h 1.625 v 5.0938 h -1.625 v -0.73438 c -0.25,0.29297 -0.51562,0.51172 -0.79688,0.65625 -0.27344,0.13281 -0.57422,0.20312 -0.90625,0.20312 -0.58594,0 -1.0312,-0.17578 -1.3438,-0.53125 -0.30469,-0.36328 -0.45312,-0.89062 -0.45312,-1.5781 z"
         id="path4986" />
    </symbol>
    <symbol
       id="m"
       overflow="visible">
      <path
         d="m 0.85938,-6.7969 h 2.9062 c 0.86328,0 1.5234,0.19531 1.9844,0.57812 0.46875,0.38672 0.70312,0.93359 0.70312,1.6406 0,0.71094 -0.23438,1.2578 -0.70312,1.6406 -0.46094,0.38672 -1.1211,0.57812 -1.9844,0.57812 H 2.60938 V -6e-5 h -1.75 z m 1.75,1.2656 v 1.9062 h 0.96875 c 0.34375,0 0.60156,-0.082031 0.78125,-0.25 0.1875,-0.16406 0.28125,-0.39844 0.28125,-0.70312 0,-0.30078 -0.09375,-0.53516 -0.28125,-0.70312 -0.17969,-0.16406 -0.4375,-0.25 -0.78125,-0.25 z"
         id="path4989" />
    </symbol>
    <symbol
       id="l"
       overflow="visible">
      <path
         d="m 0.78125,-5.0938 h 1.625 v 5 c 0,0.6875 -0.16406,1.207 -0.48438,1.5625 -0.32422,0.36328 -0.79688,0.54688 -1.4219,0.54688 h -0.8125 v -1.0781 h 0.28125 c 0.3125,0 0.52344,-0.070312 0.64062,-0.20312 C 0.72262,0.59764 0.78122,0.3203 0.78122,-0.09376 Z m 0,-2 h 1.625 V -5.75 h -1.625 z"
         id="path4992" />
    </symbol>
    <symbol
       id="k"
       overflow="visible">
      <path
         d="m 4.9062,-4.9375 v 1.3281 C 4.68745,-3.76565 4.46089,-3.87893 4.23432,-3.95315 4.01557,-4.023463 3.7851,-4.06253 3.54682,-4.06253 c -0.46094,0 -0.82031,0.13672 -1.0781,0.40625 -0.25,0.26172 -0.375,0.63281 -0.375,1.1094 0,0.48047 0.125,0.85547 0.375,1.125 0.25781,0.26172 0.61719,0.39062 1.0781,0.39062 0.25,0 0.48828,-0.035156 0.71875,-0.10938 0.22656,-0.082031 0.44141,-0.19531 0.64062,-0.34375 v 1.3281 C 4.64447,-0.06254 4.38275,0.00387 4.12494,0.04683 3.86322,0.097611 3.6015,0.124955 3.34369,0.124955 c -0.92969,0 -1.6523,-0.23438 -2.1719,-0.70312 -0.51172,-0.46875 -0.76562,-1.125 -0.76562,-1.9688 0,-0.8438 0.25391,-1.5 0.76562,-1.9688 0.51953,-0.46875 1.2422,-0.70312 2.1719,-0.70312 0.25781,0 0.51953,0.027344 0.78125,0.078125 0.25781,0.042969 0.51953,0.10938 0.78125,0.20312 z"
         id="path4995" />
    </symbol>
  </defs>
  <g
     id="g5271">
    <path
       d="m 67.199,129.176 v 87.359 H 0 v 80.266 h 67.199 v 89.227 c 0,71.121 57.867,129.17 129.17,129.17 h 40.133 v -80.266 h -40.133 c -26.879,0 -48.906,-21.84 -48.906,-48.906 v -256.85 c 0,-26.879 21.84,-48.906 48.906,-48.906 h 40.133 V 0 H 196.369 C 125.064,0 67.199,57.867 67.199,129.18 Z"
       id="path5000" />
    <path
       d="M 524.539,216.536 H 457.34 V 129.177 C 457.34,58.056 399.473,0.007 328.17,0.007 h -40.133 v 80.266 h 40.133 c 26.879,0 48.906,21.84 48.906,48.906 v 256.85 c 0,26.879 -21.84,48.906 -48.906,48.906 h -40.133 v 80.266 h 40.133 c 71.121,0 129.17,-57.867 129.17,-129.17 v -89.227 h 67.199 z"
       id="path5002" />
  </g>
</svg>
